{
    "Songs": [
        {
            "Song Name": "Brianstorm",
            "Album": "Favourite Worst Nightmare",
            "Band": "Arctic Monkeys",
            "Year": "2007",
            "Genre": "Indie Rock",
            "Language": "English",
            "Video": "https://www.youtube.com/embed/30w8DyEJ__0",
            "Lyrics": "https://www.azlyrics.com/lyrics/arcticmonkeys/brianstorm.html"
        },
        {
            "Song Name": "Star Treatment",
            "Album": "Tranquility Base Hotel and Casino",
            "Band": "Arctic Monkeys",
            "Year": "2018",
            "Genre": "Lounge Pop",
            "Language": "English",
            "Video": "https://www.youtube.com/embed/f_2rM8A_1-w",
            "Lyrics": "https://www.azlyrics.com/lyrics/arcticmonkeys/startreatment.html"
        },
        {
            "Song Name": "505",
            "Album": "Favourite Worst Nightmare",
            "Band": "Arctic Monkeys",
            "Year": "2007",
            "Genre": "Indie Rock",
            "Language": "English",
            "Video": "https://www.youtube.com/embed/KfEEm4Zx-EU",
            "Lyrics": "https://www.azlyrics.com/lyrics/arcticmonkeys/505.html"
        },
        {
            "Song Name": "I Bet You Look Good on the Dancefloor",
            "Album": "Whatever People Say I Am, That's What I'm Not",
            "Band": "Arctic Monkeys",
            "Year": "2006",
            "Genre": "Indie Rock",
            "Language": "English",
            "Video": "https://www.youtube.com/embed/pK7egZaT3hs",
            "Lyrics": "https://www.azlyrics.com/lyrics/arcticmonkeys/ibetyoulookgoodonthedancefloor.html"
        },
        {
            "Song Name": "R U Mine?",
            "Album": "AM",
            "Band": "Arctic Monkeys",
            "Year": "2013",
            "Genre": "Indie Rock",
            "Language": "English",
            "Video": "https://www.youtube.com/embed/VQH8ZTgna3Q",
            "Lyrics": "https://www.azlyrics.com/lyrics/arcticmonkeys/rumine.html"
        },
        {
            "Song Name": "Do I Wanna Know?",
            "Album": "AM",
            "Band": "Arctic Monkeys",
            "Year": "2013",
            "Genre": "Indie Rock",
            "Language": "English",
            "Video": "https://www.youtube.com/embed/bpOSxM0rNPM",
            "Lyrics": "https://www.azlyrics.com/lyrics/arcticmonkeys/doiwannaknow.html"
        },
        {
            "Song Name": "Four Out Of Five",
            "Album": "Tranquility Base Hotel and Casino",
            "Band": "Arctic Monkeys",
            "Year": "2018",
            "Genre": "Lounge Pop",
            "Language": "English",
            "Video": "https://www.youtube.com/embed/71Es-8FfATo",
            "Lyrics": "https://www.azlyrics.com/lyrics/arcticmonkeys/fouroutoffive.html"
        },
        {
            "Song Name": "Crying Lightning",
            "Album": "Humbug",
            "Band": "Arctic Monkeys",
            "Year": "2009",
            "Genre": "Desert Rock",
            "Language": "English",
            "Video": "https://www.youtube.com/embed/fLsBJPlGIDU",
            "Lyrics": "https://www.azlyrics.com/lyrics/arcticmonkeys/cryinglightning.html"
        },
        {
            "Song Name": "Cornerstone",
            "Album": "Humbug",
            "Band": "Arctic Monkeys",
            "Year": "2009",
            "Genre": "Desert Rock",
            "Language": "English",
            "Video": "https://www.youtube.com/embed/LIQz6zZi7R0",
            "Lyrics": "https://www.azlyrics.com/lyrics/arcticmonkeys/cornerstone.html"
        },
        {
            "Song Name": "Pretty Visitors",
            "Album": "Humbug",
            "Band": "Arctic Monkeys",
            "Year": "2009",
            "Genre": "Desert Rock",
            "Language": "English",
            "Video": "https://www.youtube.com/embed/I7rkCHBHPN8",
            "Lyrics": "https://www.azlyrics.com/lyrics/arcticmonkeys/prettyvisitors.html"
        },
        {
            "Song Name": "Don't Sit Down 'Cause I've Moved Your Chair",
            "Album": "Suck It and See",
            "Band": "Arctic Monkeys",
            "Year": "2011",
            "Genre": "Psychedelic Pop",
            "Language": "English",
            "Video": "https://www.youtube.com/embed/h1vYbHHhqYE",
            "Lyrics": "https://www.azlyrics.com/lyrics/arcticmonkeys/dontsitdowncauseivemovedyourchair.html"
        },
        {
            "Song Name": "Take Me Out",
            "Album": "Franz Ferdinand",
            "Band": "Franz Ferdinand",
            "Year": "2004",
            "Genre": "Indie Rock",
            "Language": "English",
            "Video": "https://www.youtube.com/embed/Ijk4j-r7qPA",
            "Lyrics": "https://www.azlyrics.com/lyrics/franzferdinand/takemeout.html"
        },
        {
            "Song Name": "The Fallen",
            "Album": "You Could Have It So Much Better",
            "Band": "Franz Ferdinand",
            "Year": "2005",
            "Genre": "Indie Rock",
            "Language": "English",
            "Video": "https://www.youtube.com/embed/prrwSME_QEc",
            "Lyrics": "https://www.azlyrics.com/lyrics/franzferdinand/thefallen.html"
        },
        {
            "Song Name": "Glimpse of Love",
            "Album": "Always Ascending",
            "Band": "Franz Ferdinand",
            "Year": "2018",
            "Genre": "Disco Rock",
            "Language": "English",
            "Video": "https://www.youtube.com/embed/Et9wZVyYra0",
            "Lyrics": "https://www.azlyrics.com/lyrics/franzferdinand/glimpseoflove.html"
        },
        {
            "Song Name": "Love Illumination",
            "Album": "Right Thoughts, Right Words, Right Actions",
            "Band": "Franz Ferdinand",
            "Year": "2013",
            "Genre": "Disco Rock",
            "Language": "English",
            "Video": "https://www.youtube.com/embed/Ooq23i-QGBM",
            "Lyrics": "https://www.azlyrics.com/lyrics/franzferdinand/loveillumination.html"
        },
        {
            "Song Name": "This Fire",
            "Album": "Franz Ferdinand",
            "Band": "Franz Ferdinand",
            "Year": "2004",
            "Genre": "Indie Rock",
            "Language": "English",
            "Video": "https://www.youtube.com/embed/haW_ruZ_Be8",
            "Lyrics": "https://www.azlyrics.com/lyrics/franzferdinand/thisfire.html"
        },
        {
            "Song Name": "Matinee",
            "Album": "Franz Ferdinand",
            "Band": "Franz Ferdinand",
            "Year": "2004",
            "Genre": "Indie Rock",
            "Language": "English",
            "Video": "https://www.youtube.com/embed/r8k-iy_tWtQ",
            "Lyrics": "https://www.azlyrics.com/lyrics/franzferdinand/thisfire.html"
        },
        {
            "Song Name": "You're the Reason I'm Leaving",
            "Album": "You Could Have It So Much Better",
            "Band": "Franz Ferdinand",
            "Year": "2005",
            "Genre": "Indie Rock",
            "Language": "English",
            "Video": "https://www.youtube.com/embed/N478qqUA-1Y",
            "Lyrics": "https://www.azlyrics.com/lyrics/franzferdinand/yourethereasonimleaving.html"
        },
        {
            "Song Name": "Bullet",
            "Album": "Right Thoughts, Right Words, Right Actions",
            "Band": "Franz Ferdinand",
            "Year": "2013",
            "Genre": "Disco Rock",
            "Language": "English",
            "Video": "https://www.youtube.com/embed/iMfjROpKCnw",
            "Lyrics": "https://www.azlyrics.com/lyrics/franzferdinand/bullet.html"
        },
        {
            "Song Name": "Walk Away",
            "Album": "You Could Have It So Much Better",
            "Band": "Franz Ferdinand",
            "Year": "2005",
            "Genre": "Indie Rock",
            "Language": "English",
            "Video": "https://www.youtube.com/embed/XZ_wzpmVzdE",
            "Lyrics": "https://www.azlyrics.com/lyrics/franzferdinand/walkaway.html"
        },
        {
            "Song Name": "Do You Want To",
            "Album": "You Could Have It So Much Better",
            "Band": "Franz Ferdinand",
            "Year": "2005",
            "Genre": "Indie Rock",
            "Language": "English",
            "Video": "https://www.youtube.com/embed/1OJRRUnY--A",
            "Lyrics": "https://www.azlyrics.com/lyrics/franzferdinand/doyouwantto.html"
        },
        {
            "Song Name": "No You Girls",
            "Album": "Tonight: Franz Ferdinand",
            "Band": "Franz Ferdinand",
            "Year": "2009",
            "Genre": "Indie Rock",
            "Language": "English",
            "Video": "https://www.youtube.com/embed/j-5L5McaBAY",
            "Lyrics": "https://www.azlyrics.com/lyrics/franzferdinand/noyougirls.html"
        },
        {
            "Song Name": "Right Action",
            "Album": "Right Thoughts, Right Words, Right Actions",
            "Band": "Franz Ferdinand",
            "Year": "2013",
            "Genre": "Disco Rock",
            "Language": "English",
            "Video": "https://www.youtube.com/embed/RqTsUtQLRFk",
            "Lyrics": "https://www.azlyrics.com/lyrics/franzferdinand/rightaction.html"
        },
        {
            "Song Name": "Always Ascending",
            "Album": "Always Ascending",
            "Band": "Franz Ferdinand",
            "Year": "2018",
            "Genre": "Disco Rock",
            "Language": "English",
            "Video": "https://www.youtube.com/embed/crjugtkXZN4",
            "Lyrics": "https://www.azlyrics.com/lyrics/franzferdinand/alwaysascending.html"
        },
        {
            "Song Name": "Figure It Out",
            "Album": "Royal Blood",
            "Band": "Royal Blood",
            "Year": "2014",
            "Genre": "Garage Rock",
            "Language": "English",
            "Video": "https://www.youtube.com/embed/jhgVu2lsi_k",
            "Lyrics": "https://www.azlyrics.com/lyrics/royalblood/figureitout.html"
        },
        {
            "Song Name": "Lights Out",
            "Album": "How Did We Get So Dark?",
            "Band": "Royal Blood",
            "Year": "2017",
            "Genre": "Hard Rock",
            "Language": "English",
            "Video": "https://www.youtube.com/embed/ZSznpyG9CHY",
            "Lyrics": "https://www.azlyrics.com/lyrics/royalblood/lightsout.html"
        },
        {
            "Song Name": "I Only Lie When I Love You",
            "Album": "How Did We Get So Dark?",
            "Band": "Royal Blood",
            "Year": "2017",
            "Genre": "Hard Rock",
            "Language": "English",
            "Video": "https://www.youtube.com/embed/BermIHe03zU",
            "Lyrics": "https://www.azlyrics.com/lyrics/royalblood/ionlyliewheniloveyou.html"
        },
        {
            "Song Name": "Little Monster",
            "Album": "Royal Blood",
            "Band": "Royal Blood",
            "Year": "2014",
            "Genre": "Garage Rock",
            "Language": "English",
            "Video": "https://www.youtube.com/embed/ere2Mstl8ww",
            "Lyrics": "https://www.azlyrics.com/lyrics/royalblood/littlemonster.html"
        },
        {
            "Song Name": "Out Of The Black",
            "Album": "Royal Blood",
            "Band": "Royal Blood",
            "Year": "2014",
            "Genre": "Garage Rock",
            "Language": "English",
            "Video": "https://www.youtube.com/embed/bSdtvfBQd6c",
            "Lyrics": "https://www.azlyrics.com/lyrics/royalblood/outoftheblack.html"
        },
        {
            "Song Name": "Ten Tonne Skeleton",
            "Album": "Royal Blood",
            "Band": "Royal Blood",
            "Year": "2014",
            "Genre": "Garage Rock",
            "Language": "English",
            "Video": "https://www.youtube.com/embed/eD7NZTQ3QxY",
            "Lyrics": "https://www.azlyrics.com/lyrics/royalblood/tentonneskeleton.html"
        },
        {
            "Song Name": "Come On Over",
            "Album": "Royal Blood",
            "Band": "Royal Blood",
            "Year": "2014",
            "Genre": "Garage Rock",
            "Language": "English",
            "Video": "https://www.youtube.com/embed/nG1gRK5b_v0",
            "Lyrics": "https://www.azlyrics.com/lyrics/royalblood/comeonover.html"
        },
        {
            "Song Name": "Hook, Line & Sinker",
            "Album": "How Did We Get So Dark?",
            "Band": "Royal Blood",
            "Year": "2017",
            "Genre": "Hard Rock",
            "Language": "English",
            "Video": "https://www.youtube.com/embed/FgrLHKM5z4E",
            "Lyrics": "https://www.azlyrics.com/lyrics/royalblood/hooklinesinker.html"
        },
        {
            "Song Name": "You Can Be So Cruel",
            "Album": "Royal Blood",
            "Band": "Royal Blood",
            "Year": "2014",
            "Genre": "Garage Rock",
            "Language": "English",
            "Video": "https://www.youtube.com/embed/Uq-MZ0NEPeg",
            "Lyrics": "https://www.azlyrics.com/lyrics/royalblood/youcanbesocruel.html"
        },
        {
            "Song Name": "Loose Change",
            "Album": "Royal Blood",
            "Band": "Royal Blood",
            "Year": "2014",
            "Genre": "Garage Rock",
            "Language": "English",
            "Video": "https://www.youtube.com/embed/Gh7VKu0rOK8",
            "Lyrics": "https://www.azlyrics.com/lyrics/royalblood/loosechange.html"
        },
        {
            "Song Name": "Is This It",
            "Album": "Is This It",
            "Band": "The Strokes",
            "Year": "2001",
            "Genre": "Indie Rock",
            "Language": "English",
            "Video": "https://www.youtube.com/embed/RHrGj1IyE0Y",
            "Lyrics": "https://www.azlyrics.com/lyrics/strokes/isthisit.html"
        },
        {
            "Song Name": "Someday",
            "Album": "Is This It",
            "Band": "The Strokes",
            "Year": "2001",
            "Genre": "Indie Rock",
            "Language": "English",
            "Video": "https://www.youtube.com/embed/knU9gRUWCno",
            "Lyrics": "https://www.azlyrics.com/lyrics/strokes/someday.html"
        },
        {
            "Song Name": "New York City Cops",
            "Album": "Is This It",
            "Band": "The Strokes",
            "Year": "2001",
            "Genre": "Indie Rock",
            "Language": "English",
            "Video": "https://www.youtube.com/embed/OkLxi4Tsm2E",
            "Lyrics": "https://www.azlyrics.com/lyrics/strokes/newyorkcitycops.html"
        },
        {
            "Song Name": "Last Nite",
            "Album": "Is This It",
            "Band": "The Strokes",
            "Year": "2001",
            "Genre": "Indie Rock",
            "Language": "English",
            "Video": "https://www.youtube.com/embed/TOypSnKFHrE",
            "Lyrics": "https://www.azlyrics.com/lyrics/strokes/lastnite.html"
        },
        {
            "Song Name": "Reptilia",
            "Album": "Room On Fire",
            "Band": "The Strokes",
            "Year": "2003",
            "Genre": "Indie Rock",
            "Language": "English",
            "Video": "https://www.youtube.com/embed/b8-tXG8KrWs",
            "Lyrics": "https://www.azlyrics.com/lyrics/strokes/reptilia.html"
        },
        {
            "Song Name": "Hard to Explain",
            "Album": "Is This It",
            "Band": "The Strokes",
            "Year": "2001",
            "Genre": "Indie Rock",
            "Language": "English",
            "Video": "https://www.youtube.com/embed/BXkm6h6uq0k",
            "Lyrics": "https://www.azlyrics.com/lyrics/strokes/hardtoexplain.html"
        },
        {
            "Song Name": "You Only Live Once",
            "Album": "First Impressions of Earth",
            "Band": "The Strokes",
            "Year": "2006",
            "Genre": "Garage Rock",
            "Language": "English",
            "Video": "https://www.youtube.com/embed/pT68FS3YbQ4",
            "Lyrics": "https://www.azlyrics.com/lyrics/strokes/youonlyliveonce.html"
        },
        {
            "Song Name": "Heart in a Cage",
            "Album": "First Impressions of Earth",
            "Band": "The Strokes",
            "Year": "2006",
            "Genre": "Garage Rock",
            "Language": "English",
            "Video": "https://www.youtube.com/embed/3dyNbMVfeyM",
            "Lyrics": "https://www.azlyrics.com/lyrics/strokes/heartinacage.html"
        },
        {
            "Song Name": "12:51",
            "Album": "Room On Fire",
            "Band": "The Strokes",
            "Year": "2003",
            "Genre": "Indie Rock",
            "Language": "English",
            "Video": "https://www.youtube.com/embed/LPAVDHo1Elc",
            "Lyrics": "https://www.azlyrics.com/lyrics/strokes/1251.html"
        },
        {
            "Song Name": "All the Time",
            "Album": "Comedown Machine",
            "Band": "The Strokes",
            "Year": "2013",
            "Genre": "Indie Rock",
            "Language": "English",
            "Video": "https://www.youtube.com/embed/TJC8zeu3MHk",
            "Lyrics": "https://www.azlyrics.com/lyrics/strokes/allthetime.html"
        },
        {
            "Song Name": "Juicebox",
            "Album": "First Impressions of Earth",
            "Band": "The Strokes",
            "Year": "2006",
            "Genre": "Garage Rock",
            "Language": "English",
            "Video": "https://www.youtube.com/embed/GoltwBHXCx8",
            "Lyrics": "https://www.azlyrics.com/lyrics/strokes/juicebox.html"
        },
        {
            "Song Name": "Under Cover of Darkness",
            "Album": "Angles",
            "Band": "The Strokes",
            "Year": "2011",
            "Genre": "Indie Rock",
            "Language": "English",
            "Video": "https://www.youtube.com/embed/_l09H-3zzgA",
            "Lyrics": "https://www.azlyrics.com/lyrics/strokes/undercoverofdarkness.html"
        },
        {
            "Song Name": "Undercover Martyn",
            "Album": "Tourist History",
            "Band": "Two Door Cinema Club",
            "Year": "2010",
            "Genre": "Indie Rock",
            "Language": "English",
            "Video": "https://www.youtube.com/embed/LLK4oaXUuLg",
            "Lyrics": "https://www.azlyrics.com/lyrics/twodoorcinemaclub/undercovermartyn.html"
        },
        {
            "Song Name": "What You Know",
            "Album": "Tourist History",
            "Band": "Two Door Cinema Club",
            "Year": "2010",
            "Genre": "Indie Rock",
            "Language": "English",
            "Video": "https://www.youtube.com/embed/YXwYJyrKK5A",
            "Lyrics": "https://www.azlyrics.com/lyrics/twodoorcinemaclub/whatyouknow.html"
        },
        {
            "Song Name": "Something Good Can Work",
            "Album": "Tourist History",
            "Band": "Two Door Cinema Club",
            "Year": "2010",
            "Genre": "Indie Rock",
            "Language": "English",
            "Video": "https://www.youtube.com/embed/Wxu02vp_Vm0",
            "Lyrics": "https://www.azlyrics.com/lyrics/twodoorcinemaclub/somethinggoodcanwork.html"
        },
        {
            "Song Name": "Cigarettes in the Theatre",
            "Album": "Tourist History",
            "Band": "Two Door Cinema Club",
            "Year": "2010",
            "Genre": "Indie Rock",
            "Language": "English",
            "Video": "https://www.youtube.com/embed/mtWYEa_2KDc",
            "Lyrics": "https://www.azlyrics.com/lyrics/twodoorcinemaclub/cigarettesinthetheatre.html"
        },
        {
            "Song Name": "Eat That Up, It's Good for You",
            "Album": "Tourist History",
            "Band": "Two Door Cinema Club",
            "Year": "2010",
            "Genre": "Indie Rock",
            "Language": "English",
            "Video": "https://www.youtube.com/embed/uR9OWDWqLB0",
            "Lyrics": "https://www.azlyrics.com/lyrics/twodoorcinemaclub/eatthatupitsgoodforyou.html"
        },
        {
            "Song Name": "I Can Talk",
            "Album": "Tourist History",
            "Band": "Two Door Cinema Club",
            "Year": "2010",
            "Genre": "Indie Rock",
            "Language": "English",
            "Video": "https://www.youtube.com/embed/PdhJ6bUNad0",
            "Lyrics": "https://www.azlyrics.com/lyrics/twodoorcinemaclub/icantalk.html"
        },
        {
            "Song Name": "Sun",
            "Album": "Beacon",
            "Band": "Two Door Cinema Club",
            "Year": "2012",
            "Genre": "Indie Pop",
            "Language": "English",
            "Video": "https://www.youtube.com/embed/sKyK1Mme9Sc",
            "Lyrics": "https://www.azlyrics.com/lyrics/twodoorcinemaclub/sun.html"
        },
        {
            "Song Name": "Next Year",
            "Album": "Beacon",
            "Band": "Two Door Cinema Club",
            "Year": "2012",
            "Genre": "Indie Pop",
            "Language": "English",
            "Video": "https://www.youtube.com/embed/VTuJuok5QK4",
            "Lyrics": "https://www.azlyrics.com/lyrics/twodoorcinemaclub/nextyear.html"
        },
        {
            "Song Name": "Changing of the Seasons",
            "Album": "Beacon",
            "Band": "Two Door Cinema Club",
            "Year": "2012",
            "Genre": "Indie Pop",
            "Language": "English",
            "Video": "https://www.youtube.com/embed/ovnCXhogusc",
            "Lyrics": "https://www.azlyrics.com/lyrics/twodoorcinemaclub/changingoftheseasons.html"
        },
        {
            "Song Name": "Sleep Alone",
            "Album": "Beacon",
            "Band": "Two Door Cinema Club",
            "Year": "2012",
            "Genre": "Indie Pop",
            "Language": "English",
            "Video": "https://www.youtube.com/embed/YNXybY2DtwM",
            "Lyrics": "https://www.azlyrics.com/lyrics/twodoorcinemaclub/sleepalone.html"
        },
        {
            "Song Name": "Are We Ready? (Wreck)",
            "Album": "Gameshow",
            "Band": "Two Door Cinema Club",
            "Year": "2016",
            "Genre": "Funk Rock",
            "Language": "English",
            "Video": "https://www.youtube.com/embed/RrJZJtY6u7o",
            "Lyrics": "https://www.azlyrics.com/lyrics/twodoorcinemaclub/arewereadywreck.html"
        },
        {
            "Song Name": "Talk",
            "Album": "False Alarm",
            "Band": "Two Door Cinema Club",
            "Year": "2019",
            "Genre": "Pop",
            "Language": "English",
            "Video": "https://www.youtube.com/embed/Zsaz72OBT9s",
            "Lyrics": "https://www.azlyrics.com/lyrics/twodoorcinemaclub/talk779654.html"
        },
        {
            "Song Name": "Story of My Life",
            "Album": "Midnight Memories",
            "Band": "One Direction",
            "Year": "2013",
            "Genre": "Pop",
            "Language": "English",
            "Video": "https://www.youtube.com/embed/W-TE_Ys4iwM",
            "Lyrics": "https://www.azlyrics.com/lyrics/onedirection/storyofmylife.html"
        },
        {
            "Song Name": "Best Song Ever",
            "Album": "Midnight Memories",
            "Band": "One Direction",
            "Year": "2013",
            "Genre": "Pop",
            "Language": "English",
            "Video": "https://www.youtube.com/embed/o_v9MY_FMcw",
            "Lyrics": "https://www.azlyrics.com/lyrics/onedirection/bestsongever.html"
        },
        {
            "Song Name": "Drag Me Down",
            "Album": "Made in the A.M.",
            "Band": "One Direction",
            "Year": "2015",
            "Genre": "Pop",
            "Language": "English",
            "Video": "https://www.youtube.com/embed/Jwgf3wmiA04",
            "Lyrics": "https://www.azlyrics.com/lyrics/onedirection/dragmedown.html"
        },
        {
            "Song Name": "Live While We're Young",
            "Album": "Take Me Home",
            "Band": "One Direction",
            "Year": "2012",
            "Genre": "Pop",
            "Language": "English",
            "Video": "https://www.youtube.com/embed/lNhW_61veSk",
            "Lyrics": "https://www.azlyrics.com/lyrics/onedirection/livewhilewereyoung.html"
        },
        {
            "Song Name": "What Makes You Beautiful",
            "Album": "Up All Night",
            "Band": "One Direction",
            "Year": "2011",
            "Genre": "Pop",
            "Language": "English",
            "Video": "https://www.youtube.com/embed/QJO3ROT-A4E",
            "Lyrics": "https://www.azlyrics.com/lyrics/onedirection/whatmakesyoubeautiful.html"
        },
        {
            "Song Name": "Perfect",
            "Album": "Made in the A.M.",
            "Band": "One Direction",
            "Year": "2015",
            "Genre": "Pop",
            "Language": "English",
            "Video": "https://www.youtube.com/embed/Ho32Oh6b4jc",
            "Lyrics": "https://www.azlyrics.com/lyrics/onedirection/perfect.html"
        },
        {
            "Song Name": "Diana",
            "Album": "Midnight Memories",
            "Band": "One Direction",
            "Year": "2013",
            "Genre": "Pop",
            "Language": "English",
            "Video": "https://www.youtube.com/embed/Z7jN2DRzReE",
            "Lyrics": "https://www.azlyrics.com/lyrics/onedirection/diana.html"
        },
        {
            "Song Name": "Midnight Memories",
            "Album": "Midnight Memories",
            "Band": "One Direction",
            "Year": "2013",
            "Genre": "Pop",
            "Language": "English",
            "Video": "https://www.youtube.com/embed/bkx9kCdaaMg",
            "Lyrics": "https://www.azlyrics.com/lyrics/onedirection/midnightmemories.html"
        },
        {
            "Song Name": "Steal My Girl",
            "Album": "Four",
            "Band": "One Direction",
            "Year": "2014",
            "Genre": "Pop",
            "Language": "English",
            "Video": "https://www.youtube.com/embed/UpsKGvPjAgw",
            "Lyrics": "https://www.azlyrics.com/lyrics/onedirection/stealmygirl.html"
        },
        {
            "Song Name": "One Way Or Another (Teenage Kicks)",
            "Album": "Midnight Memories",
            "Band": "One Direction",
            "Year": "2013",
            "Genre": "Pop",
            "Language": "English",
            "Video": "https://www.youtube.com/embed/36mCEZzzQ3o",
            "Lyrics": "https://www.azlyrics.com/lyrics/onedirection/onewayoranotherteenagekicks.html"
        },
        {
            "Song Name": "In Our Bones",
            "Album": "In Our Bones",
            "Band": "Against the Current",
            "Year": "2016",
            "Genre": "Pop Rock",
            "Language": "English",
            "Video": "https://www.youtube.com/embed/8co0mecbwfg",
            "Lyrics": "https://www.azlyrics.com/lyrics/againstthecurrent/inourbones.html"
        },
        {
            "Song Name": "Almost Forgot",
            "Album": "Past Lives",
            "Band": "Against the Current",
            "Year": "2018",
            "Genre": "Pop Rock",
            "Language": "English",
            "Video": "https://www.youtube.com/embed/pPXi8BNceXU",
            "Lyrics": "https://www.azlyrics.com/lyrics/againstthecurrent/almostforgot.html"
        },
        {
            "Song Name": "Runaway",
            "Album": "In Our Bones",
            "Band": "Against the Current",
            "Year": "2016",
            "Genre": "Pop Rock",
            "Language": "English",
            "Video": "https://www.youtube.com/embed/6wDgMzYkrEU",
            "Lyrics": "https://www.azlyrics.com/lyrics/againstthecurrent/runaway.html"
        },
        {
            "Song Name": "Wasteland",
            "Album": "In Our Bones",
            "Band": "Against the Current",
            "Year": "2016",
            "Genre": "Pop Rock",
            "Language": "English",
            "Video": "https://www.youtube.com/embed/Lm-rpaWkONI",
            "Lyrics": "https://www.azlyrics.com/lyrics/againstthecurrent/wasteland.html"
        },
        {
            "Song Name": "Roses",
            "Album": "In Our Bones",
            "Band": "Against the Current",
            "Year": "2016",
            "Genre": "Pop Rock",
            "Language": "English",
            "Video": "https://www.youtube.com/embed/P48RCKp6iVU",
            "Lyrics": "https://www.azlyrics.com/lyrics/againstthecurrent/roses.html"
        },
        {
            "Song Name": "Strangers Again",
            "Album": "Past Lives",
            "Band": "Against the Current",
            "Year": "2018",
            "Genre": "Pop Rock",
            "Language": "English",
            "Video": "https://www.youtube.com/embed/c6fqx3q_08M",
            "Lyrics": "https://www.azlyrics.com/lyrics/againstthecurrent/strangersagain.html"
        },
        {
            "Song Name": "Voices",
            "Album": "Past Lives",
            "Band": "Against the Current",
            "Year": "2018",
            "Genre": "Pop Rock",
            "Language": "English",
            "Video": "https://www.youtube.com/embed/oXFEMV919Pk",
            "Lyrics": "https://www.azlyrics.com/lyrics/againstthecurrent/voices.html"
        },
        {
            "Song Name": "Blood Like Gasoline",
            "Album": "In Our Bones",
            "Band": "Against the Current",
            "Year": "2016",
            "Genre": "Pop Rock",
            "Language": "English",
            "Video": "https://www.youtube.com/embed/vJa51yWf4lM",
            "Lyrics": "https://www.azlyrics.com/lyrics/againstthecurrent/bloodlikegasoline.html"
        },
        {
            "Song Name": "Young & Relentless",
            "Album": "In Our Bones",
            "Band": "Against the Current",
            "Year": "2016",
            "Genre": "Pop Rock",
            "Language": "English",
            "Video": "https://www.youtube.com/embed/GwF5KzrazXU",
            "Lyrics": "https://www.azlyrics.com/lyrics/againstthecurrent/youngrelentless.html"
        },
        {
            "Song Name": "The Fuss",
            "Album": "Past Lives",
            "Band": "Against the Current",
            "Year": "2018",
            "Genre": "Pop Rock",
            "Language": "English",
            "Video": "https://www.youtube.com/embed/y_Qsrt6c9_k",
            "Lyrics": "https://www.azlyrics.com/lyrics/againstthecurrent/thefuss.html"
        },
        {
            "Song Name": "Walk",
            "Album": "Vulgar Display of Power",
            "Band": "Pantera",
            "Year": "1992",
            "Genre": "Groove Metal",
            "Language": "English",
            "Video": "https://www.youtube.com/embed/AkFqg5wAuFk",
            "Lyrics": "https://www.azlyrics.com/lyrics/pantera/walk.html"
        },
        {
            "Song Name": "I'm Broken",
            "Album": "Far Beyond Driven",
            "Band": "Pantera",
            "Year": "1994",
            "Genre": "Groove Metal",
            "Language": "English",
            "Video": "https://www.youtube.com/embed/2-V8kYT1pvE",
            "Lyrics": "https://www.azlyrics.com/lyrics/pantera/imbroken130140.html"
        },
        {
            "Song Name": "Cowboys From Hell",
            "Album": "Cowboys From Hell",
            "Band": "Pantera",
            "Year": "1990",
            "Genre": "Groove Metal",
            "Language": "English",
            "Video": "https://www.youtube.com/embed/i97OkCXwotE",
            "Lyrics": "https://www.azlyrics.com/p/pantera.html#12171"
        },
        {
            "Song Name": "Domination",
            "Album": "Cowboys From Hell",
            "Band": "Pantera",
            "Year": "1990",
            "Genre": "Groove Metal",
            "Language": "English",
            "Video": "https://www.youtube.com/embed/lYPFrXvc2rE",
            "Lyrics": "https://www.azlyrics.com/lyrics/pantera/domination.html"
        },
        {
            "Song Name": "Message in Blood ",
            "Album": "Cowboys From Hell",
            "Band": "Pantera",
            "Year": "1990",
            "Genre": "Groove Metal",
            "Language": "English",
            "Video": "https://www.youtube.com/embed/XMWLS-D97I0",
            "Lyrics": "https://www.azlyrics.com/lyrics/pantera/messageinblood.html"
        },
        {
            "Song Name": "5 Minutes Alone",
            "Album": "Far Beyond Driven",
            "Band": "Pantera",
            "Year": "1994",
            "Genre": "Groove Metal",
            "Language": "English",
            "Video": "https://www.youtube.com/embed/7m7njvwB-Ks",
            "Lyrics": "https://www.azlyrics.com/lyrics/pantera/5minutesalone130139.html"
        },
        {
            "Song Name": "Becoming",
            "Album": "Far Beyond Driven",
            "Band": "Pantera",
            "Year": "1994",
            "Genre": "Groove Metal",
            "Language": "English",
            "Video": "https://www.youtube.com/embed/2ht3XGhlfYs",
            "Lyrics": "https://www.azlyrics.com/lyrics/pantera/becoming130138.html"
        },
        {
            "Song Name": "Hard Lines, Sunken Cheeks",
            "Album": "Far Beyond Driven",
            "Band": "Pantera",
            "Year": "1994",
            "Genre": "Groove Metal",
            "Language": "English",
            "Video": "https://www.youtube.com/embed/RkexloG4rbs",
            "Lyrics": "https://www.azlyrics.com/lyrics/pantera/hardlinessunkencheeks.html"
        },
        {
            "Song Name": "Use My Third Arm",
            "Album": "Far Beyond Driven",
            "Band": "Pantera",
            "Year": "1994",
            "Genre": "Groove Metal",
            "Language": "English",
            "Video": "https://www.youtube.com/embed/ZC56BwU82zY",
            "Lyrics": "https://www.azlyrics.com/lyrics/pantera/usemythirdarm.html"
        },
        {
            "Song Name": "A New Level",
            "Album": "Vulgar Display of Power",
            "Band": "Pantera",
            "Year": "1992",
            "Genre": "Groove Metal",
            "Language": "English",
            "Video": "https://www.youtube.com/embed/KJ0bG_7L3Sw",
            "Lyrics": "https://www.azlyrics.com/lyrics/pantera/anewlevel.html"
        },
        {
            "Song Name": "Show Yourself",
            "Album": "Emperor of Sand",
            "Band": "Mastodon",
            "Year": "2017",
            "Genre": "Progressive Metal",
            "Language": "English",
            "Video": "https://www.youtube.com/embed/gUGda7GdZPQ",
            "Lyrics": "https://www.azlyrics.com/lyrics/mastodon/showyourself.html"
        },
        {
            "Song Name": "Steambreather",
            "Album": "Emperor of Sand",
            "Band": "Mastodon",
            "Year": "2017",
            "Genre": "Progressive Metal",
            "Language": "English",
            "Video": "https://www.youtube.com/embed/HEubrZV04b0",
            "Lyrics": "https://www.azlyrics.com/lyrics/mastodon/steambreather.html"
        },
        {
            "Song Name": "Roots Remain",
            "Album": "Emperor of Sand",
            "Band": "Mastodon",
            "Year": "2017",
            "Genre": "Progressive Metal",
            "Language": "English",
            "Video": "https://www.youtube.com/embed/0weBagBHlk0",
            "Lyrics": "https://www.azlyrics.com/lyrics/mastodon/rootsremain.html"
        },
        {
            "Song Name": "Ancient Kingdom",
            "Album": "Emperor of Sand",
            "Band": "Mastodon",
            "Year": "2017",
            "Genre": "Progressive Metal",
            "Language": "English",
            "Video": "https://www.youtube.com/embed/3sptxthK5Dg",
            "Lyrics": "https://www.azlyrics.com/lyrics/mastodon/ancientkingdom.html"
        },
        {
            "Song Name": "Blood and Thunder",
            "Album": "Leviathan",
            "Band": "Mastodon",
            "Year": "2004",
            "Genre": "Progressive Metal",
            "Language": "English",
            "Video": "https://www.youtube.com/embed/labytsb3gfI",
            "Lyrics": "https://www.azlyrics.com/lyrics/mastodon/bloodthunder.html"
        },
        {
            "Song Name": "The Motherload",
            "Album": "Once More 'Round the Sun",
            "Band": "Mastodon",
            "Year": "2014",
            "Genre": "Progressive Metal",
            "Language": "English",
            "Video": "https://www.youtube.com/embed/jWFWazj7Ud8",
            "Lyrics": "https://www.azlyrics.com/lyrics/mastodon/themotherload.html"
        },
        {
            "Song Name": "Crusher Destoyer",
            "Album": "Remission",
            "Band": "Mastodon",
            "Year": "2002",
            "Genre": "Progressive Metal",
            "Language": "English",
            "Video": "https://www.youtube.com/embed/latazoi7XEY",
            "Lyrics": "https://www.azlyrics.com/lyrics/mastodon/crusherdestroyer.html"
        },
        {
            "Song Name": "Oblivion",
            "Album": "Crack the Skye",
            "Band": "Mastodon",
            "Year": "2009",
            "Genre": "Progressive Metal",
            "Language": "English",
            "Video": "https://www.youtube.com/embed/s6WGNd8QR-U",
            "Lyrics": "https://www.azlyrics.com/lyrics/mastodon/oblivion.html"
        },
        {
            "Song Name": "Sultan's Curse",
            "Album": "Emperor of Sand",
            "Band": "Mastodon",
            "Year": "2017",
            "Genre": "Progressive Metal",
            "Language": "English",
            "Video": "https://www.youtube.com/embed/Og39iIBeOHI",
            "Lyrics": "https://www.azlyrics.com/lyrics/mastodon/sultanscurse.html"
        },
        {
            "Song Name": "Precious Stones",
            "Album": "Emperor of Sand",
            "Band": "Mastodon",
            "Year": "2017",
            "Genre": "Progressive Metal",
            "Language": "English",
            "Video": "https://www.youtube.com/embed/qT0ikDTNhd4",
            "Lyrics": "https://www.azlyrics.com/lyrics/mastodon/preciousstones.html"
        },
        {
            "Song Name": "Flesh Storm",
            "Album": "Christ Illusion",
            "Band": "Slayer",
            "Year": "2006",
            "Genre": "Thrash Metal",
            "Language": "English",
            "Video": "https://www.youtube.com/embed/2DwI-nWq2Cw",
            "Lyrics": "https://www.azlyrics.com/lyrics/slayer/fleshstorm.html"
        },
        {
            "Song Name": "Here Comes the Pain",
            "Album": "God Hates Us All",
            "Band": "Slayer",
            "Year": "2001",
            "Genre": "Thrash Metal",
            "Language": "English",
            "Video": "https://www.youtube.com/embed/scp0hPwhG14",
            "Lyrics": "https://www.azlyrics.com/lyrics/slayer/herecomesthepain.html"
        },
        {
            "Song Name": "Raining Blood",
            "Album": "Reign in Blood",
            "Band": "Slayer",
            "Year": "1986",
            "Genre": "Thrash Metal",
            "Language": "English",
            "Video": "https://www.youtube.com/embed/z8ZqFlw6hYg",
            "Lyrics": "https://www.azlyrics.com/lyrics/slayer/rainingblood.html"
        },
        {
            "Song Name": "Repentless",
            "Album": "Repentless",
            "Band": "Slayer",
            "Year": "2015",
            "Genre": "Thrash Metal",
            "Language": "English",
            "Video": "https://www.youtube.com/embed/yjb0j9l1sz4",
            "Lyrics": "https://www.azlyrics.com/lyrics/slayer/repentless.html"
        },
        {
            "Song Name": "War Ensemble",
            "Album": "Seasons in the Abyss",
            "Band": "Slayer",
            "Year": "1990",
            "Genre": "Thrash Metal",
            "Language": "English",
            "Video": "https://www.youtube.com/embed/jqnC54vbUbU",
            "Lyrics": "https://www.azlyrics.com/lyrics/slayer/warensemble.html"
        },
        {
            "Song Name": "Black Magic",
            "Album": "Show No Mercy",
            "Band": "Slayer",
            "Year": "1983",
            "Genre": "Thrash Metal",
            "Language": "English",
            "Video": "https://www.youtube.com/embed/8CoGDjtBtVE",
            "Lyrics": "https://www.azlyrics.com/lyrics/slayer/blackmagic.html"
        },
        {
            "Song Name": "South of Heaven",
            "Album": "South of Heaven",
            "Band": "Slayer",
            "Year": "1988",
            "Genre": "Thrash Metal",
            "Language": "English",
            "Video": "https://www.youtube.com/embed/XtLvlaGJJEU",
            "Lyrics": "https://www.azlyrics.com/lyrics/slayer/southofheaven.html"
        },
        {
            "Song Name": "Angel of Death",
            "Album": "Regn in Blood",
            "Band": "Slayer",
            "Year": "1986",
            "Genre": "Thrash Metal",
            "Language": "English",
            "Video": "https://www.youtube.com/embed/K6_zsJ8KPP0",
            "Lyrics": "https://www.azlyrics.com/lyrics/slayer/angelofdeath.html"
        },
        {
            "Song Name": "Seasons In The Abyss",
            "Album": "Seasons in the Abyss",
            "Band": "Slayer",
            "Year": "1990",
            "Genre": "Thrash Metal",
            "Language": "English",
            "Video": "https://www.youtube.com/embed/DECp8LKurKs",
            "Lyrics": "https://www.azlyrics.com/lyrics/slayer/seasonsintheabyss.html"
        },
        {
            "Song Name": "Reborn",
            "Album": "Reign in Blood",
            "Band": "Slayer",
            "Year": "1986",
            "Genre": "Thrash Metal",
            "Language": "English",
            "Video": "https://www.youtube.com/embed/9yL_dvV8afI",
            "Lyrics": "https://www.azlyrics.com/lyrics/slayer/reborn.html"
        },
        {
            "Song Name": "To Sirius",
            "Album": "From Mars to Sirius",
            "Band": "Gojira",
            "Year": "2005",
            "Genre": "Technical Death Metal",
            "Language": "English",
            "Video": "https://www.youtube.com/embed/k2rLuTJzaKQ",
            "Lyrics": "https://www.azlyrics.com/lyrics/gojira/tosirius.html"
        },
        {
            "Song Name": "L'Enfant Sauvage",
            "Album": "L'Enfant Sauvage",
            "Band": "Gojira",
            "Year": "2012",
            "Genre": "Technical Death Metal",
            "Language": "English",
            "Video": "https://www.youtube.com/embed/BGHlZwMYO9g",
            "Lyrics": "https://www.azlyrics.com/lyrics/gojira/lenfantsauvage.html"
        },
        {
            "Song Name": "Silvera",
            "Album": "Magma",
            "Band": "Gojira",
            "Year": "2016",
            "Genre": "Technical Death Metal",
            "Language": "English",
            "Video": "https://www.youtube.com/embed/iVvXB-Vwnco",
            "Lyrics": "https://www.azlyrics.com/lyrics/gojira/silvera.html"
        },
        {
            "Song Name": "Stranded",
            "Album": "Magma",
            "Band": "Gojira",
            "Year": "2016",
            "Genre": "Technical Death Metal",
            "Language": "English",
            "Video": "https://www.youtube.com/embed/FNdC_3LR2AI",
            "Lyrics": "https://www.azlyrics.com/lyrics/gojira/stranded.html"
        },
        {
            "Song Name": "Toxic Garbage Island",
            "Album": "The Way of All Flesh",
            "Band": "Gojira",
            "Year": "2008",
            "Genre": "Technical Death Metal",
            "Language": "English",
            "Video": "https://www.youtube.com/embed/ctKAi11MtJY",
            "Lyrics": "https://www.azlyrics.com/lyrics/gojira/toxicgarbageisland.html"
        },
        {
            "Song Name": "Vacuity",
            "Album": "The Way of All Flesh",
            "Band": "Gojira",
            "Year": "2008",
            "Genre": "Technical Death Metal",
            "Language": "English",
            "Video": "https://www.youtube.com/embed/pkg7mM5z_xc",
            "Lyrics": "https://www.azlyrics.com/lyrics/gojira/vacuity.html"
        },
        {
            "Song Name": "The Shooting Star",
            "Album": "Magma",
            "Band": "Gojira",
            "Year": "2016",
            "Genre": "Technical Death Metal",
            "Language": "English",
            "Video": "https://www.youtube.com/embed/hnRv4azfris",
            "Lyrics": "https://www.azlyrics.com/lyrics/gojira/theshootingstar.html"
        },
        {
            "Song Name": "The Cell",
            "Album": "Magma",
            "Band": "Gojira",
            "Year": "2016",
            "Genre": "Technical Death Metal",
            "Language": "English",
            "Video": "https://www.youtube.com/embed/J13GI4Xik1o",
            "Lyrics": "https://www.azlyrics.com/lyrics/gojira/thecell.html"
        },
        {
            "Song Name": "Lizard Skin",
            "Album": "Terra Incognita",
            "Band": "Gojira",
            "Year": "2001",
            "Genre": "Technical Death Metal",
            "Language": "English",
            "Video": "https://www.youtube.com/embed/WvxTIuQLPVQ",
            "Lyrics": "https://www.azlyrics.com/lyrics/gojira/lizardskin.html"
        },
        {
            "Song Name": "Space Time",
            "Album": "Terra Incognita",
            "Band": "Gojira",
            "Year": "2001",
            "Genre": "Technical Death Metal",
            "Language": "English",
            "Video": "https://www.youtube.com/embed/en9IZwuT60M",
            "Lyrics": "https://www.azlyrics.com/lyrics/gojira/spacetime.html"
        },
        {
            "Song Name": "Dig Up Her Bones",
            "Album": "American Psycho",
            "Band": "The Misfits",
            "Year": "1997",
            "Genre": "Horror Punk",
            "Language": "English",
            "Video": "https://www.youtube.com/embed/lgSLz5FeXUg",
            "Lyrics": "https://www.azlyrics.com/lyrics/misfits/digupherbones.html"
        },
        {
            "Song Name": "Hollywood Babylon",
            "Album": "Static Age",
            "Band": "The Misfits",
            "Year": "1995",
            "Genre": "Horror Punk",
            "Language": "English",
            "Video": "https://www.youtube.com/embed/HwB289J9ilE",
            "Lyrics": "https://www.azlyrics.com/lyrics/misfits/hollywoodbabylon.html"
        },
        {
            "Song Name": "Ghouls Night Out",
            "Album": "12 Hits from Hell",
            "Band": "The Misfits",
            "Year": "2001",
            "Genre": "Horror Punk",
            "Language": "English",
            "Video": "https://www.youtube.com/embed/DDo5rxp6vhA",
            "Lyrics": "https://www.azlyrics.com/lyrics/misfits/ghoulsnightout.html"
        },
        {
            "Song Name": "Die, Die My Darling",
            "Album": "Earth A.D./Wolfs Blood",
            "Band": "The Misfits",
            "Year": "1983",
            "Genre": "Horror Punk",
            "Language": "English",
            "Video": "https://www.youtube.com/embed/iyd8dY8rRtA",
            "Lyrics": "https://www.azlyrics.com/lyrics/misfits/diediemydarling.html"
        },
        {
            "Song Name": "Last Caress",
            "Album": "Static Age",
            "Band": "The Misfits",
            "Year": "1995",
            "Genre": "Horror Punk",
            "Language": "English",
            "Video": "https://www.youtube.com/embed/F39UP1mjAnc",
            "Lyrics": "https://www.azlyrics.com/lyrics/misfits/lastcaress.html"
        },
        {
            "Song Name": "Scream!",
            "Album": "Famous Monsters",
            "Band": "The Misfits",
            "Year": "1999",
            "Genre": "Horror Punk",
            "Language": "English",
            "Video": "https://www.youtube.com/embed/BGUWla4OVrY",
            "Lyrics": "https://www.azlyrics.com/lyrics/misfits/scream.html"
        },
        {
            "Song Name": "Hybrid Moments",
            "Album": "Static Age",
            "Band": "The Misfits",
            "Year": "1995",
            "Genre": "Horror Punk",
            "Language": "English",
            "Video": "https://www.youtube.com/embed/9MDOKVSN_YM",
            "Lyrics": "https://www.azlyrics.com/lyrics/misfits/hybridmoments.html"
        },
        {
            "Song Name": "Vampira",
            "Album": "Walk Among Us",
            "Band": "The Misfits",
            "Year": "1992",
            "Genre": "Horror Punk",
            "Language": "English",
            "Video": "https://www.youtube.com/embed/fLXOLTSa_mw",
            "Lyrics": "https://www.azlyrics.com/lyrics/misfits/vampira.html"
        },
        {
            "Song Name": "Death Comes Ripping",
            "Album": "Earth A.D./Wolfs Blood",
            "Band": "The Misfits",
            "Year": "1983",
            "Genre": "Horror Punk",
            "Language": "English",
            "Video": "https://www.youtube.com/embed/sULRgjCsC4E",
            "Lyrics": "https://www.azlyrics.com/lyrics/misfits/deathcomesripping.html"
        },
        {
            "Song Name": "Halloween",
            "Album": "12 Hits From Hell",
            "Band": "The Misfits",
            "Year": "2001",
            "Genre": "Horror Punk",
            "Language": "English",
            "Video": "https://www.youtube.com/embed/ChlW283_33s",
            "Lyrics": "https://www.azlyrics.com/lyrics/misfits/halloween.html"
        },
        {
            "Song Name": "Mandy",
            "Album": "It's About Time",
            "Band": "Jonas Brothers",
            "Year": "2006",
            "Genre": "Pop",
            "Language": "English",
            "Video": "https://www.youtube.com/embed/An-e5CXC3AI",
            "Lyrics": "https://www.azlyrics.com/lyrics/jonasbrothers/mandy.html"
        },
        {
            "Song Name": "Year 3000",
            "Album": "Jonas Brothers",
            "Band": "Jonas Brothers",
            "Year": "2007",
            "Genre": "Pop",
            "Language": "English",
            "Video": "https://www.youtube.com/embed/HSry5-qfVFs",
            "Lyrics": "https://www.azlyrics.com/lyrics/jonasbrothers/year3000.html"
        },
        {
            "Song Name": "Burnin' Up",
            "Album": "A Little Bit Longer",
            "Band": "Jonas Brothers",
            "Year": "2008",
            "Genre": "Pop",
            "Language": "English",
            "Video": "https://www.youtube.com/embed/5KNEZJ6KkLI",
            "Lyrics": "https://www.azlyrics.com/lyrics/jonasbrothers/burningup.html"
        },
        {
            "Song Name": "Paranoid",
            "Album": "Lines, Vines and Trying Times",
            "Band": "Jonas Brothers",
            "Year": "2009",
            "Genre": "Pop",
            "Language": "English",
            "Video": "https://www.youtube.com/embed/9QyRspHyPxQ",
            "Lyrics": "https://www.azlyrics.com/lyrics/jonasbrothers/paranoid.html"
        },
        {
            "Song Name": "Sucker",
            "Album": "Happiness Begins",
            "Band": "Jonas Brothers",
            "Year": "2019",
            "Genre": "Pop",
            "Language": "English",
            "Video": "https://www.youtube.com/embed/CnAmeh0-E-U",
            "Lyrics": "https://www.azlyrics.com/lyrics/jonasbrothers/sucker.html"
        },
        {
            "Song Name": "S.O.S.",
            "Album": "Jonas Brothers",
            "Band": "Jonas Brothers",
            "Year": "2007",
            "Genre": "Pop",
            "Language": "English",
            "Video": "https://www.youtube.com/embed/EbBGkqll8lI",
            "Lyrics": "https://www.azlyrics.com/lyrics/jonasbrothers/sos.html"
        },
        {
            "Song Name": "Lovebug",
            "Album": "A Little Bit Longer",
            "Band": "Jonas Brothers",
            "Year": "2008",
            "Genre": "Pop",
            "Language": "English",
            "Video": "https://www.youtube.com/embed/MKpCDz0UjW4",
            "Lyrics": "https://www.azlyrics.com/lyrics/jonasbrothers/lovebug.html"
        },
        {
            "Song Name": "Fly With Me",
            "Album": "Lines, Vines and Trying Times",
            "Band": "Jonas Brothers",
            "Year": "2009",
            "Genre": "Pop",
            "Language": "English",
            "Video": "https://www.youtube.com/embed/un-KTpvCPXo",
            "Lyrics": "https://www.azlyrics.com/lyrics/jonasbrothers/flywithme.html"
        },
        {
            "Song Name": "Cool",
            "Album": "Happiness Begins",
            "Band": "Jonas Brothers",
            "Year": "2019",
            "Genre": "Pop",
            "Language": "English",
            "Video": "https://www.youtube.com/embed/8_JbZvHc92U",
            "Lyrics": "https://www.azlyrics.com/lyrics/jonasbrothers/cool.html"
        },
        {
            "Song Name": "When You Look Me In The Eyes",
            "Album": "Jonas Brothers",
            "Band": "Jonas Brothers",
            "Year": "2007",
            "Genre": "Pop",
            "Language": "English",
            "Video": "https://www.youtube.com/embed/CHiIm50fsNI",
            "Lyrics": "https://www.azlyrics.com/lyrics/jonasbrothers/whenyoulookmeintheeyes.html"
        },
        {
            "Song Name": "This Love",
            "Album": "Songs About Jane",
            "Band": "Maroon 5",
            "Year": "2002",
            "Genre": "Pop",
            "Language": "English",
            "Video": "https://www.youtube.com/embed/XPpTgCho5ZA",
            "Lyrics": "https://www.azlyrics.com/lyrics/maroon5/thislove.html"
        },
        {
            "Song Name": "She Will Be Loved",
            "Album": "Songs About Jane",
            "Band": "Maroon 5",
            "Year": "2002",
            "Genre": "Pop",
            "Language": "English",
            "Video": "https://www.youtube.com/embed/nIjVuRTm-dc",
            "Lyrics": "https://www.azlyrics.com/lyrics/maroon5/shewillbeloved.html"
        },
        {
            "Song Name": "Makes Me Wonder",
            "Album": "It Won't Be Soon Before Long",
            "Band": "Maroon 5",
            "Year": "2007",
            "Genre": "Pop",
            "Language": "English",
            "Video": "https://www.youtube.com/embed/sAebYQgy4n4",
            "Lyrics": "https://www.azlyrics.com/lyrics/maroon5/makesmewonder.html"
        },
        {
            "Song Name": "Misery",
            "Album": "Hands All Over",
            "Band": "Maroon 5",
            "Year": "2010",
            "Genre": "Pop",
            "Language": "English",
            "Video": "https://www.youtube.com/embed/6g6g2mvItp4",
            "Lyrics": "https://www.azlyrics.com/lyrics/maroon5/misery.html"
        },
        {
            "Song Name": "Payphone",
            "Album": "Overexposed",
            "Band": "Maroon 5",
            "Year": "2012",
            "Genre": "Pop",
            "Language": "English",
            "Video": "https://www.youtube.com/embed/KRaWnd3LJfs",
            "Lyrics": "https://www.azlyrics.com/lyrics/maroon5/payphone.html"
        },
        {
            "Song Name": "One More Night",
            "Album": "Overexposed",
            "Band": "Maroon 5",
            "Year": "2012",
            "Genre": "Pop",
            "Language": "English",
            "Video": "https://www.youtube.com/embed/fwK7ggA3-bU",
            "Lyrics": "https://www.azlyrics.com/lyrics/maroon5/onemorenight.html"
        },
        {
            "Song Name": "Animals",
            "Album": "V",
            "Band": "Maroon 5",
            "Year": "2014",
            "Genre": "Pop",
            "Language": "English",
            "Video": "https://www.youtube.com/embed/qpgTC9MDx1o",
            "Lyrics": "https://www.azlyrics.com/lyrics/maroon5/animals.html"
        },
        {
            "Song Name": "Sugar",
            "Album": "V",
            "Band": "Maroon 5",
            "Year": "2014",
            "Genre": "Pop",
            "Language": "English",
            "Video": "https://www.youtube.com/embed/09R8_2nJtjg",
            "Lyrics": "https://www.azlyrics.com/lyrics/maroon5/sugar.html"
        },
        {
            "Song Name": "Maps",
            "Album": "V",
            "Band": "Maroon 5",
            "Year": "2014",
            "Genre": "Pop",
            "Language": "English",
            "Video": "https://www.youtube.com/embed/NmugSMBh_iI",
            "Lyrics": "https://www.azlyrics.com/lyrics/maroon5/maps.html"
        },
        {
            "Song Name": "Girls Like You",
            "Album": "Red Pill Blues",
            "Band": "Maroon 5",
            "Year": "2017",
            "Genre": "Pop",
            "Language": "English",
            "Video": "https://www.youtube.com/embed/aJOTlE1K90k",
            "Lyrics": "https://www.azlyrics.com/lyrics/maroon5/girlslikeyou.html"
        },
        {
            "Song Name": "Love Don't Live Here",
            "Album": "Lady Antebellum",
            "Band": "Lady Antebellum",
            "Year": "2008",
            "Genre": "Country",
            "Language": "English",
            "Video": "https://www.youtube.com/embed/d_42IUpKPss",
            "Lyrics": "https://www.azlyrics.com/lyrics/ladyantebellum/lovedontlivehere.html"
        },
        {
            "Song Name": "Lookin' for a Good Time",
            "Album": "Lady Antebellum",
            "Band": "Lady Antebellum",
            "Year": "2008",
            "Genre": "Country",
            "Language": "English",
            "Video": "https://www.youtube.com/embed/zL6JO5v0S2Q",
            "Lyrics": "https://www.azlyrics.com/lyrics/ladyantebellum/lookinforagoodtime.html"
        },
        {
            "Song Name": "I Run to You",
            "Album": "Lady Antebellum",
            "Band": "Lady Antebellum",
            "Year": "2008",
            "Genre": "Country",
            "Language": "English",
            "Video": "https://www.youtube.com/embed/Rs38lKxmtI4",
            "Lyrics": "https://www.azlyrics.com/lyrics/ladyantebellum/iruntoyou.html"
        },
        {
            "Song Name": "Need You Now",
            "Album": "Need You Now",
            "Band": "Lady Antebellum",
            "Year": "2010",
            "Genre": "Country",
            "Language": "English",
            "Video": "https://www.youtube.com/embed/eM213aMKTHg",
            "Lyrics": "https://www.azlyrics.com/lyrics/ladyantebellum/needyounow.html"
        },
        {
            "Song Name": "American Honey",
            "Album": "Need You Now",
            "Band": "Lady Antebellum",
            "Year": "2010",
            "Genre": "Country",
            "Language": "English",
            "Video": "https://www.youtube.com/embed/Tzzr7RbzUTs",
            "Lyrics": "https://www.azlyrics.com/lyrics/ladyantebellum/americanhoney.html"
        },
        {
            "Song Name": "Our Kind of Love",
            "Album": "Need You Now",
            "Band": "Lady Antebellum",
            "Year": "2010",
            "Genre": "Country",
            "Language": "English",
            "Video": "https://www.youtube.com/embed/QaOKbvpxnTo",
            "Lyrics": "https://www.azlyrics.com/lyrics/ladyantebellum/ourkindoflove.html"
        },
        {
            "Song Name": "Just a Kiss",
            "Album": "Own the Night",
            "Band": "Lady Antebellum",
            "Year": "2011",
            "Genre": "Country",
            "Language": "English",
            "Video": "https://www.youtube.com/embed/v_yTphvyiPU",
            "Lyrics": "https://www.azlyrics.com/lyrics/ladyantebellum/justakiss.html"
        },
        {
            "Song Name": "Downtown",
            "Album": "Golden",
            "Band": "Lady Antebellum",
            "Year": "2013",
            "Genre": "Country",
            "Language": "English",
            "Video": "https://www.youtube.com/embed/3WeSItykFyY",
            "Lyrics": "https://www.azlyrics.com/lyrics/ladyantebellum/downtown.html"
        },
        {
            "Song Name": "Bartender",
            "Album": "747",
            "Band": "Lady Antebellum",
            "Year": "2014",
            "Genre": "Country",
            "Language": "English",
            "Video": "https://www.youtube.com/embed/_rHuitW9xDc",
            "Lyrics": "https://www.azlyrics.com/lyrics/ladyantebellum/bartender.html"
        },
        {
            "Song Name": "You Look Good",
            "Album": "Heart Break",
            "Band": "Lady Antebellum",
            "Year": "2017",
            "Genre": "Country",
            "Language": "English",
            "Video": "https://www.youtube.com/embed/fWsAUqdtwjM",
            "Lyrics": "https://www.azlyrics.com/lyrics/ladyantebellum/youlookgood.html"
        },
        {
            "Song Name": "Swimming Pools (Drank)",
            "Album": "Good Kid, M.A.A.D. City",
            "Band": "Kendrick Lamar",
            "Year": "2012",
            "Genre": "Hip Hop",
            "Language": "English",
            "Video": "https://www.youtube.com/embed/B5YNiCfWC3A",
            "Lyrics": "https://www.azlyrics.com/lyrics/kendricklamar/swimmingpoolsdrank.html"
        },
        {
            "Song Name": "Poetic Justice",
            "Album": "Good Kid, M.A.A.D. City",
            "Band": "Kendrick Lamar",
            "Year": "2012",
            "Genre": "Hip Hop",
            "Language": "English",
            "Video": "https://www.youtube.com/embed/yyr2gEouEMM",
            "Lyrics": "https://www.azlyrics.com/lyrics/kendricklamar/poeticjustice.html"
        },
        {
            "Song Name": "Bitch, Don't Kill My Vibe",
            "Album": "Good Kid, M.A.A.D. City",
            "Band": "Kendrick Lamar",
            "Year": "2012",
            "Genre": "Hip Hop",
            "Language": "English",
            "Video": "https://www.youtube.com/embed/GF8aaTu2kg0",
            "Lyrics": "https://www.azlyrics.com/lyrics/kendricklamar/bitchdontkillmyvibe.html"
        },
        {
            "Song Name": "M.A.A.D. City",
            "Album": "Good Kid, M.A.A.D. City",
            "Band": "Kendrick Lamar",
            "Year": "2012",
            "Genre": "Hip Hop",
            "Language": "English",
            "Video": "https://www.youtube.com/embed/AuikIJZpt_8",
            "Lyrics": "https://www.azlyrics.com/lyrics/kendricklamar/maadcity.html"
        },
        {
            "Song Name": "Backseat Freestyle",
            "Album": "Good Kid, M.A.A.D. City",
            "Band": "Kendrick Lamar",
            "Year": "2012",
            "Genre": "Hip Hop",
            "Language": "English",
            "Video": "https://www.youtube.com/embed/EZW7et3tPuQ",
            "Lyrics": "https://www.azlyrics.com/lyrics/kendricklamar/backseatfreestyle.html"
        },
        {
            "Song Name": "Meat Grinder",
            "Album": "Madvillainy",
            "Band": "Madvillain",
            "Year": "2004",
            "Genre": "Hip Hop",
            "Language": "English",
            "Video": "https://www.youtube.com/embed/x8Ru8d0l_fU",
            "Lyrics": "https://www.azlyrics.com/lyrics/mfdoom/meatgrinder.html"
        },
        {
            "Song Name": "Strange Ways",
            "Album": "Madvillainy",
            "Band": "Madvillain",
            "Year": "2004",
            "Genre": "Hip Hop",
            "Language": "English",
            "Video": "https://www.youtube.com/embed/uSxlZQUqVPY",
            "Lyrics": "https://www.azlyrics.com/lyrics/mfdoom/strangeways.html"
        },
        {
            "Song Name": "Accordion",
            "Album": "Madvillainy",
            "Band": "Madvillain",
            "Year": "2004",
            "Genre": "Hip Hop",
            "Language": "English",
            "Video": "https://www.youtube.com/embed/rpaonSDPw7Y",
            "Lyrics": "https://www.azlyrics.com/lyrics/mfdoom/accordion.html"
        },
        {
            "Song Name": "Rhinestone Cowboy",
            "Album": "Madvillainy",
            "Band": "Madvillain",
            "Year": "2004",
            "Genre": "Hip Hop",
            "Language": "English",
            "Video": "https://www.youtube.com/embed/s4iR668Ki3I",
            "Lyrics": "https://www.azlyrics.com/lyrics/mfdoom/rhinestonecowboy.html"
        },
        {
            "Song Name": "Curls",
            "Album": "Madvillainy",
            "Band": "Madvillain",
            "Year": "2004",
            "Genre": "Hip Hop",
            "Language": "English",
            "Video": "https://www.youtube.com/embed/herNYSdJd0o",
            "Lyrics": "https://www.azlyrics.com/lyrics/mfdoom/curls.html"
        },
        {
            "Song Name": "Shake it Off",
            "Album": "1989",
            "Band": "Taylor Swift",
            "Year": "2014",
            "Genre": "Synth Pop",
            "Language": "English",
            "Video": "https://www.youtube.com/embed/nfWlot6h_JM",
            "Lyrics": "https://www.azlyrics.com/lyrics/taylorswift/shakeitoff.html"
        },
        {
            "Song Name": "Blank Space",
            "Album": "1989",
            "Band": "Taylor Swift",
            "Year": "2014",
            "Genre": "Synth Pop",
            "Language": "English",
            "Video": "https://www.youtube.com/embed/e-ORhEE9VVg",
            "Lyrics": "https://www.azlyrics.com/lyrics/taylorswift/blankspace.html"
        },
        {
            "Song Name": "Bad Blood",
            "Album": "1989",
            "Band": "Taylor Swift",
            "Year": "2014",
            "Genre": "Synth Pop",
            "Language": "English",
            "Video": "https://www.youtube.com/embed/QcIy9NiNbmo",
            "Lyrics": "https://www.azlyrics.com/lyrics/taylorswift/badblood.html"
        },
        {
            "Song Name": "Look What You Made Me Do",
            "Album": "Reputation",
            "Band": "Taylor Swift",
            "Year": "2017",
            "Genre": "Pop",
            "Language": "English",
            "Video": "https://www.youtube.com/embed/3tmd-ClpJxA",
            "Lyrics": "https://www.azlyrics.com/lyrics/taylorswift/lookwhatyoumademedo.html"
        },
        {
            "Song Name": "Me!",
            "Album": "Lover",
            "Band": "Taylor Swift",
            "Year": "2019",
            "Genre": "Pop",
            "Language": "English",
            "Video": "https://www.youtube.com/embed/FuXNumBwDOM",
            "Lyrics": "https://www.azlyrics.com/lyrics/taylorswift/me.html"
        },
        {
            "Song Name": "I Knew You Were Trouble",
            "Album": "Red",
            "Band": "Taylor Swift",
            "Year": "2012",
            "Genre": "Pop",
            "Language": "English",
            "Video": "https://www.youtube.com/embed/vNoKguSdy4Y",
            "Lyrics": "https://www.azlyrics.com/lyrics/taylorswift/iknewyouweretrouble.html"
        },
        {
            "Song Name": "Dear John",
            "Album": "Speak Now",
            "Band": "Taylor Swift",
            "Year": "2010",
            "Genre": "Country Pop",
            "Language": "English",
            "Video": "https://www.youtube.com/embed/-CA9CvO87tI",
            "Lyrics": "https://www.azlyrics.com/lyrics/taylorswift/dearjohn.html"
        },
        {
            "Song Name": "Love Story",
            "Album": "Fearless",
            "Band": "Taylor Swift",
            "Year": "2008",
            "Genre": "Country Pop",
            "Language": "English",
            "Video": "https://www.youtube.com/embed/8xg3vE8Ie_E",
            "Lyrics": "https://www.azlyrics.com/lyrics/taylorswift/lovestory.html"
        },
        {
            "Song Name": "Teardrops on my Guitar",
            "Album": "Taylor Swift",
            "Band": "Taylor Swift",
            "Year": "2006",
            "Genre": "Country",
            "Language": "English",
            "Video": "https://www.youtube.com/embed/xKCek6_dB0M",
            "Lyrics": "https://www.azlyrics.com/lyrics/taylorswift/teardropsonmyguitar.html"
        },
        {
            "Song Name": "Once in a Lifetime",
            "Album": "Remain in The Light",
            "Band": "Talking Heads",
            "Year": "1980",
            "Genre": "Rock",
            "Language": "English",
            "Video": "https://www.youtube.com/embed/5IsSpAOD6K8",
            "Lyrics": "https://www.azlyrics.com/lyrics/talkingheads/onceinalifetime.html"
        },
        {
            "Song Name": "Psycho Killer",
            "Album": "Talking Heads: 77",
            "Band": "Talking Heads",
            "Year": "1977",
            "Genre": "Rock",
            "Language": "English",
            "Video": "https://www.youtube.com/embed/O52jAYa4Pm8",
            "Lyrics": "https://www.azlyrics.com/lyrics/talkingheads/psychokiller.html"
        },
        {
            "Song Name": "This Must Be the Place",
            "Album": "Speaking in Tongues",
            "Band": "Talking Heads",
            "Year": "1982",
            "Genre": "Rock",
            "Language": "English",
            "Video": "https://www.youtube.com/embed/o9gK2fOq4MY",
            "Lyrics": "https://www.azlyrics.com/lyrics/talkingheads/thismustbetheplacenaivemelody.html"
        },
        {
            "Song Name": "Take Me to the River",
            "Album": "More Songs About Buisness and Food",
            "Band": "Talking Heads",
            "Year": "1978",
            "Genre": "Rock",
            "Language": "English",
            "Video": "https://www.youtube.com/embed/yFS67lfCXXQ",
            "Lyrics": "https://www.azlyrics.com/lyrics/talkingheads/takemetotheriver.html"
        },
        {
            "Song Name": "Crosseyed and Painless",
            "Album": "Remain in the Light",
            "Band": "Talking Heads",
            "Year": "1980",
            "Genre": "Rock",
            "Language": "English",
            "Video": "https://www.youtube.com/embed/_Zrkf65GmwE",
            "Lyrics": "https://www.azlyrics.com/lyrics/talkingheads/crosseyedandpainless.html"
        },
        {
            "Song Name": "Flowers",
            "Album": "Naked",
            "Band": "Talking Heads",
            "Year": "1988",
            "Genre": "Rock",
            "Language": "English",
            "Video": "https://www.youtube.com/embed/q5-LAb75LpQ",
            "Lyrics": "https://www.azlyrics.com/lyrics/talkingheads/nothingbutflowers.html"
        },
        {
            "Song Name": "Blind",
            "Album": "Naked",
            "Band": "Talking Heads",
            "Year": "1988",
            "Genre": "Rock",
            "Language": "English",
            "Video": "https://www.youtube.com/embed/8ut5tHfbaJA",
            "Lyrics": "https://www.azlyrics.com/lyrics/talkingheads/blind.html"
        },
        {
            "Song Name": "Don't Worry About the Government",
            "Album": "Talking Heads 77",
            "Band": "Talking Heads",
            "Year": "1977",
            "Genre": "Rock",
            "Language": "English",
            "Video": "https://www.youtube.com/embed/0ZYHP6IBoac",
            "Lyrics": "https://www.azlyrics.com/lyrics/talkingheads/dontworryaboutthegovernment.html"
        },
        {
            "Song Name": "Should I Stay or Should I Go",
            "Album": "Combat Rock",
            "Band": "The Clash",
            "Year": "1981",
            "Genre": "Punk Rock",
            "Language": "English",
            "Video": "https://www.youtube.com/embed/BN1WwnEDWAM",
            "Lyrics": "https://www.azlyrics.com/lyrics/clash/shouldistayorshouldigo.html"
        },
        {
            "Song Name": "Rock The Casbah",
            "Album": "Combat Rock",
            "Band": "The Clash",
            "Year": "1982",
            "Genre": "Punk Rock",
            "Language": "English",
            "Video": "https://www.youtube.com/embed/bJ9r8LMU9bQ",
            "Lyrics": "https://www.azlyrics.com/lyrics/clash/rockthecasbah.html"
        },
        {
            "Song Name": "In Hammersmith Palais",
            "Album": "The Clash",
            "Band": "The Clash",
            "Year": "1977",
            "Genre": "Punk Rock",
            "Language": "English",
            "Video": "https://www.youtube.com/embed/IkM5lrrnq_Y",
            "Lyrics": "https://www.azlyrics.com/lyrics/clash/whitemaninhammersmithpalais.html"
        },
        {
            "Song Name": "London Calling",
            "Album": "London Calling",
            "Band": "The Clash",
            "Year": "1979",
            "Genre": "Punk Rock",
            "Language": "English",
            "Video": "https://www.youtube.com/embed/EfK-WX2pa8c",
            "Lyrics": "https://www.azlyrics.com/lyrics/clash/londoncalling.html"
        },
        {
            "Song Name": "I Fought the Law",
            "Album": "The Clash",
            "Band": "The Clash",
            "Year": "1977",
            "Genre": "Punk Rock",
            "Language": "English",
            "Video": "https://www.youtube.com/embed/AL8chWFuM-s",
            "Lyrics": "https://www.azlyrics.com/lyrics/clash/ifoughtthelaw.html"
        },
        {
            "Song Name": "The Guns of Brixton",
            "Album": "London Calling",
            "Band": "The Clash",
            "Year": "1979",
            "Genre": "Punk Rock",
            "Language": "English",
            "Video": "https://www.youtube.com/embed/hiQoq-wqZxg",
            "Lyrics": "https://www.azlyrics.com/lyrics/clash/thegunsofbrixton.html"
        },
        {
            "Song Name": "White Riot",
            "Album": "The Clash",
            "Band": "The Clash",
            "Year": "1977",
            "Genre": "Punk Rock",
            "Language": "English",
            "Video": "https://www.youtube.com/embed/IvG3is7Bm1w",
            "Lyrics": "https://www.azlyrics.com/lyrics/clash/whiteriot.html"
        },
        {
            "Song Name": "Spanish Bombs",
            "Album": "London Calling",
            "Band": "The Clash",
            "Year": "1979",
            "Genre": "Punk Rock",
            "Language": "English",
            "Video": "https://www.youtube.com/embed/u-qcy0-7ngw",
            "Lyrics": "https://www.azlyrics.com/lyrics/clash/spanishbombs.html"
        },
        {
            "Song Name": "Police & Thieves",
            "Album": "The Clash",
            "Band": "The Clash",
            "Year": "1977",
            "Genre": "Punk Rock",
            "Language": "English",
            "Video": "https://www.youtube.com/embed/W6FZwVvS8_8",
            "Lyrics": "https://www.azlyrics.com/lyrics/clash/policeandthieves.html"
        },
        {
            "Song Name": "Death or Glory",
            "Album": "London Calling",
            "Band": "The Clash",
            "Year": "1979",
            "Genre": "Punk Rock",
            "Language": "English",
            "Video": "https://www.youtube.com/embed/YcOpZhQ7MEM",
            "Lyrics": "https://www.azlyrics.com/lyrics/clash/deathorglory.html"
        },
        {
            "Song Name": "One Foot",
            "Album": "What If Nothing",
            "Band": "Walk The Moon",
            "Year": "2017",
            "Genre": "Rock",
            "Language": "English",
            "Video": "https://www.youtube.com/embed/05v4nfUmBYI",
            "Lyrics": "https://www.azlyrics.com/lyrics/walkthemoon/onefoot.html"
        },
        {
            "Song Name": "Anna Sun",
            "Album": "Walk The Moon",
            "Band": "Walk The Moon",
            "Year": "2012",
            "Genre": "Rock",
            "Language": "English",
            "Video": "https://www.youtube.com/embed/qDVW81bXo0s",
            "Lyrics": "https://www.azlyrics.com/lyrics/walkthemoon/annasun.html"
        },
        {
            "Song Name": "Different Colors",
            "Album": "What If Nothing",
            "Band": "Walk The Moon",
            "Year": "2017",
            "Genre": "Rock",
            "Language": "English",
            "Video": "https://www.youtube.com/embed/ww7RNf2R14U",
            "Lyrics": "https://www.azlyrics.com/lyrics/walkthemoon/differentcolors.html"
        },
        {
            "Song Name": "Work This Body",
            "Album": "What If Nothing",
            "Band": "Walk The Moon",
            "Year": "2017",
            "Genre": "Rock",
            "Language": "English",
            "Video": "https://www.youtube.com/embed/0UYi5naMsfg",
            "Lyrics": "https://www.azlyrics.com/lyrics/walkthemoon/workthisbody.html"
        },
        {
            "Song Name": "Tiger Teeth",
            "Album": "What If Nothing",
            "Band": "Walk The Moon",
            "Year": "2017",
            "Genre": "Rock",
            "Language": "English",
            "Video": "https://www.youtube.com/embed/zgEaJw1wEB0",
            "Lyrics": "https://www.azlyrics.com/lyrics/walkthemoon/tigerteeth.html"
        },
        {
            "Song Name": "Tightrope",
            "Album": "Walk The Moon",
            "Band": "Walk The Moon",
            "Year": "2012",
            "Genre": "Rock",
            "Language": "English",
            "Video": "https://www.youtube.com/embed/gPedH9B8AAE",
            "Lyrics": "https://www.azlyrics.com/lyrics/walkthemoon/tightrope.html"
        },
        {
            "Song Name": "Kamikaze",
            "Album": "What If Nothing",
            "Band": "Walk The Moon",
            "Year": "2017",
            "Genre": "Rock",
            "Language": "English",
            "Video": "https://www.youtube.com/embed/t-g3wLNjSCc",
            "Lyrics": "https://www.azlyrics.com/lyrics/walkthemoon/kamikaze.html"
        },
        {
            "Song Name": "Up 2 U",
            "Album": "Talking is Hard",
            "Band": "Walk The Moon",
            "Year": "2014",
            "Genre": "Rock",
            "Language": "English",
            "Video": "https://www.youtube.com/embed/p4JMFtGCInM",
            "Lyrics": "https://www.azlyrics.com/lyrics/walkthemoon/up2u.html"
        },
        {
            "Song Name": "Headphones",
            "Album": "What If Nothing",
            "Band": "Walk The Moon",
            "Year": "2017",
            "Genre": "Rock",
            "Language": "English",
            "Video": "https://www.youtube.com/embed/1y7giHbrvcc",
            "Lyrics": "https://www.azlyrics.com/lyrics/walkthemoon/headphones.html"
        },
        {
            "Song Name": "Shut Up and Dance",
            "Album": "Talking is Hard",
            "Band": "Walk The Moon",
            "Year": "2014",
            "Genre": "Rock",
            "Language": "English",
            "Video": "https://www.youtube.com/embed/6JCLY0Rlx6Q",
            "Lyrics": "https://www.azlyrics.com/lyrics/walkthemoon/shutupanddance.html"
        },
        {
            "Song Name": "Pompeii",
            "Album": "Bad Blood",
            "Band": "Bastille",
            "Year": "2013",
            "Genre": "Indie Rock",
            "Language": "English",
            "Video": "https://www.youtube.com/embed/m326LNIRB3k",
            "Lyrics": "https://www.azlyrics.com/lyrics/bastille/pompeii.html"
        },
        {
            "Song Name": "Joy",
            "Album": "Doom Days",
            "Band": "Bastille",
            "Year": "2019",
            "Genre": "Indie Rock",
            "Language": "English",
            "Video": "https://www.youtube.com/embed/miy6aK6btgU",
            "Lyrics": "https://www.azlyrics.com/lyrics/bastille/joy.html"
        },
        {
            "Song Name": "Good Grief",
            "Album": "Wild World",
            "Band": "Bastille",
            "Year": "2016",
            "Genre": "Indie Rock",
            "Language": "English",
            "Video": "https://www.youtube.com/embed/hOrbfQpdLKo",
            "Lyrics": "https://www.azlyrics.com/lyrics/bastille/goodgrief.html"
        },
        {
            "Song Name": "Things We Lost in The Fire",
            "Album": "Bad Blood",
            "Band": "Bastille",
            "Year": "2013",
            "Genre": "Indie Rock",
            "Language": "English",
            "Video": "https://www.youtube.com/embed/MGR4U7W1dZU",
            "Lyrics": "https://www.azlyrics.com/lyrics/bastille/thingswelostinthefire.html"
        },
        {
            "Song Name": "Quarter Part Midnight",
            "Album": "Doom Days",
            "Band": "Bastille",
            "Year": "2019",
            "Genre": "Indie Rock",
            "Language": "English",
            "Video": "https://www.youtube.com/embed/X1VzzNbfPaM",
            "Lyrics": "https://www.azlyrics.com/lyrics/bastille/quarterpastmidnight.html"
        },
        {
            "Song Name": "Dooms Days",
            "Album": "Doom Days",
            "Band": "Bastille",
            "Year": "2019",
            "Genre": "Indie Rock",
            "Language": "English",
            "Video": "https://www.youtube.com/embed/IOX30CHr4JY",
            "Lyrics": "https://www.azlyrics.com/lyrics/bastille/doomdays.html"
        },
        {
            "Song Name": "Flaws",
            "Album": "Bad Blood",
            "Band": "Bastille",
            "Year": "2013",
            "Genre": "Indie Rock",
            "Language": "English",
            "Video": "https://www.youtube.com/embed/gzRBoZb3GKw",
            "Lyrics": "https://www.azlyrics.com/lyrics/bastille/flaws.html"
        },
        {
            "Song Name": "Of The Night",
            "Album": "Bad Blood",
            "Band": "Bastille",
            "Year": "2013",
            "Genre": "Indie Rock",
            "Language": "English",
            "Video": "https://www.youtube.com/embed/ZCTDKLjdok4",
            "Lyrics": "https://www.azlyrics.com/lyrics/bastille/ofthenight.html"
        },
        {
            "Song Name": "Those Nights",
            "Album": "Wild World",
            "Band": "Bastille",
            "Year": "2016",
            "Genre": "Indie Rock",
            "Language": "English",
            "Video": "https://www.youtube.com/embed/3eLittIRa8A",
            "Lyrics": "https://www.azlyrics.com/lyrics/bastille/thosenights.html"
        },
        {
            "Song Name": "Dog Days Are Over",
            "Album": "Lungs",
            "Band": "Florence + The Machine",
            "Year": "2009",
            "Genre": "Indie Rock",
            "Language": "English",
            "Video": "https://www.youtube.com/embed/iWOyfLBYtuU",
            "Lyrics": "https://www.azlyrics.com/lyrics/florencethemachine/dogdaysareover.html"
        },
        {
            "Song Name": "Hunger",
            "Album": "High as Hope",
            "Band": "Florence + The Machine",
            "Year": "2018",
            "Genre": "Indie Rock",
            "Language": "English",
            "Video": "https://www.youtube.com/embed/5GHXEGz3PJg",
            "Lyrics": "https://www.azlyrics.com/lyrics/florencethemachine/hunger.html"
        },
        {
            "Song Name": "Shake It Out",
            "Album": "Ceremonials",
            "Band": "Florence + The Machine",
            "Year": "2011",
            "Genre": "Indie Rock",
            "Language": "English",
            "Video": "https://www.youtube.com/embed/WbN0nX61rIs",
            "Lyrics": "https://www.azlyrics.com/lyrics/florencethemachine/shakeitout.html"
        },
        {
            "Song Name": "You've Got the Love",
            "Album": "Lungs",
            "Band": "Florence + The Machine",
            "Year": "2009",
            "Genre": "Indie Rock",
            "Language": "English",
            "Video": "https://www.youtube.com/embed/PQZhN65vq9E",
            "Lyrics": "https://www.azlyrics.com/lyrics/florencethemachine/youvegotthelove.html"
        },
        {
            "Song Name": "Cosmic Love",
            "Album": "Lungs",
            "Band": "Florence + The Machine",
            "Year": "2009",
            "Genre": "Indie Rock",
            "Language": "English",
            "Video": "https://www.youtube.com/embed/2EIeUlvHAiM",
            "Lyrics": "https://www.azlyrics.com/lyrics/florencethemachine/cosmiclove.html"
        },
        {
            "Song Name": "What Kind of Man",
            "Album": "How Big, How Blue, How Beautiful",
            "Band": "Florence + The Machine",
            "Year": "2015",
            "Genre": "Indie Rock",
            "Language": "English",
            "Video": "https://www.youtube.com/embed/XgeKHTcufLY",
            "Lyrics": "https://www.azlyrics.com/lyrics/florencethemachine/whatkindofman.html"
        },
        {
            "Song Name": "Ship to Wreck",
            "Album": "How Big, How Blue, How Beautiful",
            "Band": "Florence + The Machine",
            "Year": "2015",
            "Genre": "Indie Rock",
            "Language": "English",
            "Video": "https://www.youtube.com/embed/B9v8jLBrvug",
            "Lyrics": "https://www.azlyrics.com/lyrics/florencethemachine/shiptowreck.html"
        },
        {
            "Song Name": "Sky Full of Song",
            "Album": "High as Hope",
            "Band": "Florence + The Machine",
            "Year": "2018",
            "Genre": "Indie Rock",
            "Language": "English",
            "Video": "https://www.youtube.com/embed/R1TSiB9OuVM",
            "Lyrics": "https://www.azlyrics.com/lyrics/florencethemachine/skyfullofsong.html"
        },
        {
            "Song Name": "Big God",
            "Album": "High as Hope",
            "Band": "Florence + The Machine",
            "Year": "2018",
            "Genre": "Indie Rock",
            "Language": "English",
            "Video": "https://www.youtube.com/embed/_kIrRooQwuk",
            "Lyrics": "https://www.azlyrics.com/lyrics/florencethemachine/biggod.html"
        },
        {
            "Song Name": "Patricia",
            "Album": "High as Hope",
            "Band": "Florence + The Machine",
            "Year": "2018",
            "Genre": "Indie Rock",
            "Language": "English",
            "Video": "https://www.youtube.com/embed/slpYZtTpXZw",
            "Lyrics": "https://www.azlyrics.com/lyrics/florencethemachine/patricia.html"
        },
        {
            "Song Name": "Glow Like Dat",
            "Album": "Amen",
            "Band": "Rich Brian",
            "Year": "2017",
            "Genre": "Hip Hop",
            "Language": "English",
            "Video": "https://www.youtube.com/embed/adDD43CvrUc",
            "Lyrics": "https://www.azlyrics.com/lyrics/richchigga/glowlikedat.html"
        },
        {
            "Song Name": "Heartbeat",
            "Album": "Camp",
            "Band": "Childish Gambino",
            "Year": "2011",
            "Genre": "Hip Hop",
            "Language": "English",
            "Video": "https://www.youtube.com/embed/dFVxGRekRSg",
            "Lyrics": "https://genius.com/Childish-gambino-heartbeat-lyrics"
        },
        {
            "Song Name": "V. 3005",
            "Album": "Because the Internet",
            "Band": "Childish Gambino",
            "Year": "2013",
            "Genre": "Hip Hop",
            "Language": "English",
            "Video": "https://www.youtube.com/embed/tG35R8F2j8k",
            "Lyrics": "https://www.azlyrics.com/lyrics/childishgambino/3005.html"
        },
        {
            "Song Name": "Redbone",
            "Album": "\"Awaken, My Love!\"",
            "Band": "Childish Gambino",
            "Year": "2016",
            "Genre": "Hip Hop",
            "Language": "English",
            "Video": "https://www.youtube.com/embed/Kp7eSUU9oy8",
            "Lyrics": "https://www.azlyrics.com/lyrics/childishgambino/redbone.html"
        },
        {
            "Song Name": "HiiiPoWeR",
            "Album": "Section.80",
            "Band": "Kendrick Lamar",
            "Year": "2011",
            "Genre": "Hip Hop",
            "Language": "English",
            "Video": "https://www.youtube.com/embed/2gouGEhUl2w",
            "Lyrics": "https://www.azlyrics.com/lyrics/kendricklamar/hiiipower.html"
        },
        {
            "Song Name": "i",
            "Album": "To Pimp a Butterfly",
            "Band": "Kendrick Lamar",
            "Year": "2014",
            "Genre": "Hip Hop",
            "Language": "English",
            "Video": "https://www.youtube.com/embed/8aShfolR6w8",
            "Lyrics": "https://www.azlyrics.com/lyrics/kendricklamar/i.html"
        },
        {
            "Song Name": "HUMBLE.",
            "Album": "Damn",
            "Band": "Kendrick Lamar",
            "Year": "2017",
            "Genre": "Hip Hop",
            "Language": "English",
            "Video": "https://www.youtube.com/embed/tvTRZJ-4EyI",
            "Lyrics": "https://www.azlyrics.com/lyrics/kendricklamar/dna.html"
        },
        {
            "Song Name": "DNA.",
            "Album": "Damn",
            "Band": "Kendrick Lamar",
            "Year": "2017",
            "Genre": "Hip Hop",
            "Language": "English",
            "Video": "https://www.youtube.com/embed/NLZRYQMLDW4",
            "Lyrics": "https://www.azlyrics.com/lyrics/kendricklamar/love.html"
        },
        {
            "Song Name": "LOVE.",
            "Album": "Damn",
            "Band": "Kendrick Lamar",
            "Year": "2017",
            "Genre": "Hip Hop",
            "Language": "English",
            "Video": "https://www.youtube.com/embed/ox7RsX1Ee34",
            "Lyrics": "https://www.azlyrics.com/lyrics/kendricklamar/humble.html"
        },
        {
            "Song Name": "Sweatpants",
            "Album": "because the Internet",
            "Band": "Childish Gambino",
            "Year": "2014",
            "Genre": "Hip Hop",
            "Language": "English",
            "Video": "https://www.youtube.com/embed/ExVtrghW5Y4",
            "Lyrics": "https://www.azlyrics.com/lyrics/childishgambino/sweatpants.html"
        },
        {
            "Song Name": "Me and Your Mama",
            "Album": "\"Awaken, My Love!\"",
            "Band": "Childish Gambino",
            "Year": "2016",
            "Genre": "Hip Hop",
            "Language": "English",
            "Video": "https://www.youtube.com/embed/_hZCsgcKa-g",
            "Lyrics": "https://www.azlyrics.com/lyrics/childishgambino/meandyourmama.html"
        },
        {
            "Song Name": "Bonfire",
            "Album": "Camp",
            "Band": "Childish Gambino",
            "Year": "2011",
            "Genre": "Hip Hop",
            "Language": "English",
            "Video": "https://www.youtube.com/embed/qL1B_r9nC9k",
            "Lyrics": "https://www.azlyrics.com/lyrics/childishgambino/bonfire.html"
        },
        {
            "Song Name": "Have Some Love",
            "Album": "\"Awaken, My Love!\"",
            "Band": "Childish Gambino",
            "Year": "2016",
            "Genre": "Hip Hop",
            "Language": "English",
            "Video": "https://www.youtube.com/embed/mMF6hsQNrBw",
            "Lyrics": "https://www.azlyrics.com/lyrics/childishgambino/havesomelove.html"
        },
        {
            "Song Name": "California",
            "Album": "\"Awaken, My Love!\"",
            "Band": "Childish Gambino",
            "Year": "2016",
            "Genre": "Hip Hop",
            "Language": "English",
            "Video": "https://www.youtube.com/embed/zGTnrUJZVbU",
            "Lyrics": "https://www.azlyrics.com/lyrics/childishgambino/california.html"
        },
        {
            "Song Name": "Stand Tall",
            "Album": "\"Awaken, My Love!\"",
            "Band": "Childish Gambino",
            "Year": "2016",
            "Genre": "Hip Hop",
            "Language": "English",
            "Video": "https://www.youtube.com/embed/WbsZnsr0lI4",
            "Lyrics": "https://www.azlyrics.com/lyrics/childishgambino/standtall.html"
        },
        {
            "Song Name": "Boogieman",
            "Album": "\"Awaken, My Love!\"",
            "Band": "Childish Gambino",
            "Year": "2016",
            "Genre": "Hip Hop",
            "Language": "English",
            "Video": "https://www.youtube.com/embed/PDQ7MUWg92M",
            "Lyrics": "https://www.azlyrics.com/lyrics/childishgambino/boogieman.html"
        },
        {
            "Song Name": "You Need To Calm Down",
            "Album": "Lover",
            "Band": "Taylor Swift",
            "Year": "2019",
            "Genre": "Pop",
            "Language": "English",
            "Video": "https://www.youtube.com/embed/Dkk9gvTmCXY",
            "Lyrics": "https://www.azlyrics.com/lyrics/taylorswift/youneedtocalmdown.html"
        },
        {
            "Song Name": "Shadows of Tomorrow",
            "Album": "Madvillainy",
            "Band": "Madvillain",
            "Year": "2004",
            "Genre": "Hip Hop",
            "Language": "English",
            "Video": "https://www.youtube.com/embed/PuaVf4f6lBM",
            "Lyrics": "https://www.azlyrics.com/lyrics/mfdoom/shadowsoftomorrow.html"
        },
        {
            "Song Name": "Figaro",
            "Album": "Madvillainy",
            "Band": "Madvillain",
            "Year": "2004",
            "Genre": "Hip Hop",
            "Language": "English",
            "Video": "https://www.youtube.com/embed/A7_0vcjN-4c",
            "Lyrics": "https://www.azlyrics.com/lyrics/mfdoom/figaro.html"
        },
        {
            "Song Name": "Bistro",
            "Album": "Madvillainy",
            "Band": "Madvillain",
            "Year": "2004",
            "Genre": "Hip Hop",
            "Language": "English",
            "Video": "https://www.youtube.com/embed/PRRMPtkmJjA",
            "Lyrics": "https://www.azlyrics.com/lyrics/mfdoom/bistro.html"
        },
        {
            "Song Name": "America's Most Blunted",
            "Album": "Madvillainy",
            "Band": "Madvillain",
            "Year": "2004",
            "Genre": "Hip Hop",
            "Language": "English",
            "Video": "https://www.youtube.com/embed/jytxkJUM_7U",
            "Lyrics": "https://www.azlyrics.com/lyrics/mfdoom/americasmostblunted.html"
        },
        {
            "Song Name": "Hardcore Hustle",
            "Album": "Madvillainy",
            "Band": "Madvillain",
            "Year": "2004",
            "Genre": "Hip Hop",
            "Language": "English",
            "Video": "https://www.youtube.com/embed/EjJmf6ukHG4",
            "Lyrics": "https://www.azlyrics.com/lyrics/mfdoom/hardcorehustle.html"
        },
        {
            "Song Name": "Little Prince",
            "Album": "Amen",
            "Band": "Rich Brian",
            "Year": "2018",
            "Genre": "Hip Hop",
            "Language": "English",
            "Video": "https://www.youtube.com/embed/j34eYKFaTcc",
            "Lyrics": "https://www.azlyrics.com/lyrics/richchigga/littleprince.html"
        },
        {
            "Song Name": "Occupied",
            "Album": "Amen",
            "Band": "Rich Brian",
            "Year": "2018",
            "Genre": "Hip Hop",
            "Language": "English",
            "Video": "https://www.youtube.com/embed/T_p3_GSHvtc",
            "Lyrics": "https://www.azlyrics.com/lyrics/richchigga/occupied.html"
        },
        {
            "Song Name": "Trespass",
            "Album": "Amen",
            "Band": "Rich Brian",
            "Year": "2018",
            "Genre": "Hip Hop",
            "Language": "English",
            "Video": "https://www.youtube.com/embed/BbRIeo-H3UU",
            "Lyrics": "https://www.azlyrics.com/lyrics/richchigga/trespass.html"
        },
        {
            "Song Name": "Flight",
            "Album": "Amen",
            "Band": "Rich Brian",
            "Year": "2018",
            "Genre": "Hip Hop",
            "Language": "English",
            "Video": "https://www.youtube.com/embed/N85Y9ZotZws",
            "Lyrics": "https://www.azlyrics.com/lyrics/richchigga/flight.html"
        },
        {
            "Song Name": "Introvert",
            "Album": "Amen",
            "Band": "Rich Brian",
            "Year": "2018",
            "Genre": "Hip Hop",
            "Language": "English",
            "Video": "https://www.youtube.com/embed/MPIpcr6hy94",
            "Lyrics": "https://www.azlyrics.com/lyrics/richchigga/introvert.html"
        },
        {
            "Song Name": "Cold",
            "Album": "Amen",
            "Band": "Rich Brian",
            "Year": "2018",
            "Genre": "Hip Hop",
            "Language": "English",
            "Video": "https://www.youtube.com/embed/Q17z9a03YaM",
            "Lyrics": "https://www.azlyrics.com/lyrics/richchigga/cold.html"
        },
        {
            "Song Name": "Chaos",
            "Album": "Amen",
            "Band": "Rich Brian",
            "Year": "2018",
            "Genre": "Hip Hop",
            "Language": "English",
            "Video": "https://www.youtube.com/embed/d4bR7ZqrBlI",
            "Lyrics": "https://www.azlyrics.com/lyrics/richchigga/chaos.html"
        },
        {
            "Song Name": "Arizona",
            "Album": "Amen",
            "Band": "Rich Brian",
            "Year": "2018",
            "Genre": "Hip Hop",
            "Language": "English",
            "Video": "https://www.youtube.com/embed/sdElvDlG1dE",
            "Lyrics": "https://www.azlyrics.com/lyrics/richchigga/arizona.html"
        },
        {
            "Song Name": "Amen",
            "Album": "Amen",
            "Band": "Rich Brian",
            "Year": "2018",
            "Genre": "Hip Hop",
            "Language": "English",
            "Video": "https://www.youtube.com/embed/qIFRX7A_9FQ",
            "Lyrics": "https://www.azlyrics.com/lyrics/richchigga/amen.html"
        }
    ]
}